…
sim_results_df = 
  expand_grid(
    sample_size = c(30, 60, 120, 240),
    iter = 1:10
  ) |> 
  mutate(
    estimate_df = map(sample_size, sim_mean_sd)
  ) |> 
  unnest(estimate_df)

sim_results_df
```

    ## # A tibble: 40 × 4
    ##    sample_size  iter mu_hat sigma_hat
    ##          <dbl> <int>  <dbl>     <dbl>
    ##  1          30     1   1.89      3.01
    ##  2          30     2   2.43      2.59
    ##  3          30     3   2.03      2.59
    ##  4          30     4   1.10      3.28
    ##  5          30     5   2.24      2.89
    ##  6          30     6   1.86      2.77
    ##  7          30     7   1.90      3.27
    ##  8          30     8   2.31      2.71
    ##  9          30     9   2.01      2.87
    ## 10          30    10   2.30      3.26
    ## # ℹ 30 more rows
…
sim_results_df = 
  expand_grid(
    sample_size = 30,
    iter = 1:500
  ) |> 
  mutate(
    estimate_df = map(sample_size, sim_regression)
  ) |> 
  unnest(estimate_df)

sim_results_df
```

    ## # A tibble: 500 × 4
    ##    sample_size  iter beta0_hat beta1_hat
    ##          <dbl> <int>     <dbl>     <dbl>
    ##  1          30     1      2.03      2.93
    ##  2          30     2      1.39      3.41
    ##  3          30     3      1.69      3.15
    ##  4          30     4      1.87      2.99
    ##  5          30     5      2.46      2.93
    ##  6          30     6      1.91      3.12
    ##  7          30     7      1.61      3.10
    ##  8          30     8      2.06      2.85
    ##  9          30     9      1.84      3.13
    ## 10          30    10      1.99      3.17
    ## # ℹ 490 more rows
…
